<?xml version="1.0" encoding="UTF-8"?>
<session version="1.0">
<refactoring accessors="true" comment="Delete element from project &apos;tugasSuhu&apos;&#x0A;- Original project: &apos;tugasSuhu&apos;&#x0A;- Original element: &apos;coba.java&apos;" description="Delete element" element1="/src&lt;{coba.java" elements="1" flags="589830" id="org.eclipse.jdt.ui.delete" resources="0" stamp="1469151960361" subPackages="false" version="1.0"/>
</session>